<?xml version="1.0" encoding="utf-8"?>
<!-- Generator: Adobe Illustrator 17.0.0, SVG Export Plug-In . SVG Version: 6.00 Build 0)  -->
<!DOCTYPE svg PUBLIC "-//W3C//DTD SVG 1.1//EN" "http://www.w3.org/Graphics/SVG/1.1/DTD/svg11.dtd">
<svg version="1.1" id="Layer_1" xmlns="http://www.w3.org/2000/svg" xmlns:xlink="http://www.w3.org/1999/xlink" x="0px" y="0px"
	 width="83.175px" height="32.273px" viewBox="0 0 83.175 32.273" enable-background="new 0 0 83.175 32.273" xml:space="preserve">
<path fill="#FFFFFF" d="M41.586,0c6.934,16.53,23.269,28.143,42.319,28.143v4.697H-0.73v-4.697C18.319,28.143,34.653,16.53,41.586,0
	z"/>
</svg>
