<?xml version="1.0" encoding="utf-8"?>
<!-- Generator: Adobe Illustrator 17.0.0, SVG Export Plug-In . SVG Version: 6.00 Build 0)  -->
<!DOCTYPE svg PUBLIC "-//W3C//DTD SVG 1.1//EN" "http://www.w3.org/Graphics/SVG/1.1/DTD/svg11.dtd">
<svg version="1.1" id="Layer_1" xmlns="http://www.w3.org/2000/svg" xmlns:xlink="http://www.w3.org/1999/xlink" x="0px" y="0px"
	 width="890.474px" height="117.017px" viewBox="-129.066 9.517 890.474 117.017"
	 enable-background="new -129.066 9.517 890.474 117.017" xml:space="preserve">
<path fill="#E6282B" d="M558.169,28.558c1.811-4.317,5.294-7.758,9.638-9.52c-4.344-1.76-7.827-5.2-9.638-9.518
	c-1.812,4.317-5.294,7.757-9.638,9.518C552.875,20.8,556.357,24.24,558.169,28.558z"/>
<path opacity="0" fill="#E6282B" d="M41.905,42.177c-1.812,4.318-5.295,7.758-9.639,9.52c4.343,1.761,7.827,5.2,9.639,9.518
	c1.81-4.318,5.294-7.758,9.638-9.518C47.199,49.935,43.716,46.495,41.905,42.177z"/>
<path opacity="0" fill="#E6282B" d="M74.17,42.177c-1.811,4.318-5.293,7.758-9.637,9.52c4.344,1.761,7.827,5.2,9.637,9.518
	c1.812-4.318,5.295-7.758,9.64-9.518C79.465,49.935,75.982,46.495,74.17,42.177z"/>
<path opacity="0" fill="#E6282B" d="M106.437,42.177c-1.81,4.318-5.294,7.759-9.638,9.521c4.344,1.761,7.828,5.2,9.638,9.518
	c1.812-4.318,5.295-7.758,9.64-9.518C111.732,49.935,108.249,46.495,106.437,42.177z"/>
<path opacity="0" fill="#E6282B" d="M138.704,42.177c-1.812,4.318-5.294,7.758-9.638,9.52c4.344,1.761,7.826,5.2,9.638,9.518
	c1.811-4.318,5.294-7.758,9.639-9.518C143.998,49.935,140.515,46.495,138.704,42.177z"/>
<path opacity="0" fill="#E6282B" d="M170.971,42.177c-1.812,4.318-5.294,7.759-9.638,9.521c4.344,1.761,7.827,5.2,9.638,9.518
	c1.812-4.318,5.295-7.758,9.638-9.518C176.266,49.935,172.783,46.495,170.971,42.177z"/>
<path opacity="0" fill="#E6282B" d="M203.238,42.177c-1.811,4.318-5.295,7.759-9.638,9.521c4.343,1.761,7.827,5.2,9.638,9.518
	c1.812-4.318,5.294-7.758,9.638-9.518C208.532,49.935,205.05,46.495,203.238,42.177z"/>
<path opacity="0" fill="#E6282B" d="M235.504,42.177c-1.811,4.318-5.294,7.759-9.638,9.521c4.344,1.761,7.827,5.2,9.638,9.518
	c1.811-4.318,5.294-7.758,9.638-9.518C240.798,49.935,237.315,46.495,235.504,42.177z"/>
<path opacity="0" fill="#E6282B" d="M267.771,42.177c-1.811,4.318-5.294,7.758-9.639,9.52c4.345,1.761,7.828,5.2,9.639,9.518
	c1.811-4.318,5.295-7.758,9.639-9.518C273.065,49.935,269.581,46.495,267.771,42.177z"/>
<path opacity="0" fill="#E6282B" d="M300.038,42.176c-1.812,4.319-5.294,7.759-9.639,9.521c4.344,1.761,7.827,5.2,9.639,9.518
	c1.81-4.318,5.294-7.758,9.638-9.518C305.331,49.935,301.848,46.495,300.038,42.176z"/>
<path opacity="0" fill="#E6282B" d="M332.304,42.177c-1.812,4.318-5.295,7.758-9.639,9.52c4.344,1.761,7.827,5.2,9.639,9.517
	c1.811-4.317,5.293-7.757,9.638-9.517C337.597,49.935,334.114,46.495,332.304,42.177z"/>
<path opacity="0" fill="#E6282B" d="M364.57,42.177c-1.811,4.318-5.294,7.759-9.639,9.521c4.345,1.761,7.827,5.2,9.639,9.518
	c1.812-4.318,5.294-7.758,9.638-9.518C369.864,49.935,366.382,46.495,364.57,42.177z"/>
<path opacity="0" fill="#E6282B" d="M396.838,42.177c-1.812,4.318-5.295,7.759-9.639,9.521c4.344,1.761,7.827,5.2,9.639,9.518
	c1.811-4.318,5.294-7.758,9.637-9.518C402.132,49.935,398.649,46.495,396.838,42.177z"/>
<path fill="#E6282B" d="M429.103,42.177c-1.812,4.318-5.294,7.759-9.638,9.521c4.344,1.761,7.826,5.2,9.638,9.518
	c1.811-4.318,5.293-7.758,9.638-9.518C434.396,49.935,430.914,46.495,429.103,42.177z"/>
<path fill="#E6282B" d="M461.369,42.177c-1.81,4.318-5.294,7.759-9.638,9.521c4.344,1.761,7.828,5.2,9.638,9.518
	c1.812-4.318,5.295-7.758,9.64-9.518C466.664,49.935,463.181,46.495,461.369,42.177z"/>
<path fill="#E6282B" d="M493.636,42.177c-1.811,4.318-5.294,7.758-9.639,9.52c4.345,1.761,7.828,5.2,9.639,9.517
	c1.812-4.317,5.295-7.757,9.639-9.517C498.931,49.935,495.448,46.495,493.636,42.177z"/>
<path fill="#E6282B" d="M525.902,42.176c-1.812,4.319-5.294,7.759-9.638,9.521c4.344,1.761,7.826,5.2,9.638,9.518
	c1.812-4.318,5.294-7.758,9.639-9.518C531.197,49.935,527.714,46.495,525.902,42.176z"/>
<path opacity="0" fill="#E6282B" d="M74.17,74.836c-1.811,4.316-5.293,7.758-9.637,9.519c4.344,1.761,7.827,5.201,9.637,9.52
	c1.812-4.318,5.295-7.759,9.64-9.52C79.465,82.594,75.982,79.152,74.17,74.836z"/>
<path opacity="0" fill="#E6282B" d="M106.437,74.836c-1.81,4.316-5.294,7.758-9.638,9.519c4.344,1.761,7.828,5.202,9.638,9.52
	c1.812-4.318,5.295-7.759,9.64-9.52C111.732,82.594,108.249,79.152,106.437,74.836z"/>
<path opacity="0" fill="#E6282B" d="M138.704,74.836c-1.812,4.316-5.294,7.758-9.638,9.519c4.344,1.761,7.826,5.201,9.638,9.52
	c1.811-4.318,5.294-7.759,9.639-9.52C143.998,82.594,140.515,79.152,138.704,74.836z"/>
<path opacity="0" fill="#E6282B" d="M170.971,74.836c-1.812,4.316-5.294,7.758-9.638,9.519c4.344,1.761,7.827,5.201,9.638,9.52
	c1.812-4.318,5.295-7.759,9.638-9.52C176.266,82.594,172.783,79.152,170.971,74.836z"/>
<path opacity="0" fill="#E6282B" d="M203.238,74.836c-1.811,4.316-5.295,7.758-9.638,9.519c4.343,1.761,7.827,5.201,9.638,9.52
	c1.812-4.318,5.294-7.759,9.638-9.52C208.532,82.594,205.05,79.152,203.238,74.836z"/>
<path opacity="0" fill="#E6282B" d="M235.504,74.836c-1.811,4.316-5.294,7.758-9.638,9.519c4.344,1.761,7.827,5.201,9.638,9.52
	c1.811-4.318,5.294-7.759,9.638-9.52C240.798,82.594,237.315,79.152,235.504,74.836z"/>
<path opacity="0" fill="#E6282B" d="M267.771,74.836c-1.811,4.316-5.294,7.758-9.639,9.519c4.345,1.761,7.828,5.201,9.639,9.52
	c1.811-4.318,5.295-7.759,9.639-9.52C273.065,82.594,269.581,79.152,267.771,74.836z"/>
<path opacity="0" fill="#E6282B" d="M300.038,74.835c-1.812,4.317-5.294,7.759-9.639,9.52c4.344,1.761,7.827,5.202,9.639,9.52
	c1.81-4.318,5.294-7.759,9.638-9.52C305.331,82.594,301.848,79.152,300.038,74.835z"/>
<path opacity="0" fill="#E6282B" d="M332.304,74.836c-1.812,4.316-5.295,7.758-9.639,9.519c4.344,1.761,7.827,5.201,9.639,9.52
	c1.811-4.318,5.293-7.759,9.638-9.52C337.597,82.594,334.114,79.152,332.304,74.836z"/>
<path fill="#E6282B" d="M364.57,74.836c-1.811,4.316-5.294,7.758-9.639,9.519c4.345,1.761,7.827,5.202,9.639,9.52
	c1.812-4.318,5.294-7.759,9.638-9.52C369.864,82.594,366.382,79.152,364.57,74.836z"/>
<path fill="#E6282B" d="M396.838,74.836c-1.812,4.316-5.295,7.758-9.639,9.519c4.344,1.761,7.827,5.201,9.639,9.52
	c1.811-4.318,5.294-7.759,9.637-9.52C402.132,82.594,398.649,79.152,396.838,74.836z"/>
<path fill="#E6282B" d="M429.103,74.836c-1.812,4.316-5.294,7.758-9.638,9.519c4.344,1.761,7.826,5.201,9.638,9.52
	c1.811-4.318,5.293-7.759,9.638-9.52C434.396,82.594,430.914,79.152,429.103,74.836z"/>
<path fill="#E6282B" d="M461.369,74.836c-1.81,4.316-5.294,7.758-9.638,9.519c4.344,1.761,7.828,5.202,9.638,9.52
	c1.812-4.318,5.295-7.759,9.64-9.52C466.664,82.594,463.181,79.152,461.369,74.836z"/>
<path fill="#E6282B" d="M493.636,74.836c-1.811,4.316-5.294,7.758-9.639,9.519c4.345,1.761,7.828,5.201,9.639,9.52
	c1.812-4.318,5.295-7.759,9.639-9.52C498.931,82.594,495.448,79.152,493.636,74.836z"/>
<path fill="#E6282B" d="M525.902,74.835c-1.812,4.317-5.294,7.759-9.638,9.52c4.344,1.761,7.826,5.202,9.638,9.52
	c1.812-4.318,5.294-7.759,9.639-9.52C531.197,82.594,527.714,79.152,525.902,74.835z"/>
<path opacity="0" fill="#E6282B" d="M74.171,107.493c-1.81,4.317-5.294,7.758-9.638,9.519c4.344,1.762,7.827,5.202,9.638,9.521
	c1.812-4.318,5.295-7.759,9.639-9.521C79.466,115.251,75.983,111.81,74.171,107.493z"/>
<path opacity="0" fill="#E6282B" d="M106.437,107.492c-1.81,4.318-5.293,7.759-9.638,9.52c4.345,1.762,7.828,5.202,9.638,9.521
	c1.812-4.318,5.295-7.759,9.64-9.521C111.732,115.251,108.249,111.81,106.437,107.492z"/>
<path opacity="0" fill="#E6282B" d="M138.704,107.493c-1.812,4.317-5.294,7.758-9.638,9.519c4.344,1.762,7.826,5.202,9.638,9.521
	c1.811-4.318,5.294-7.759,9.638-9.521C143.998,115.251,140.515,111.81,138.704,107.493z"/>
<path opacity="0" fill="#E6282B" d="M170.971,107.492c-1.812,4.318-5.294,7.759-9.638,9.52c4.344,1.762,7.827,5.202,9.638,9.521
	c1.812-4.318,5.294-7.759,9.638-9.521C176.265,115.251,172.783,111.81,170.971,107.492z"/>
<path opacity="0" fill="#E6282B" d="M203.238,107.492c-1.811,4.318-5.294,7.759-9.638,9.52c4.344,1.762,7.827,5.202,9.638,9.521
	c1.812-4.318,5.294-7.759,9.638-9.521C208.532,115.251,205.05,111.81,203.238,107.492z"/>
<path opacity="0" fill="#E6282B" d="M235.503,107.492c-1.811,4.318-5.294,7.759-9.638,9.52c4.344,1.762,7.827,5.202,9.638,9.521
	c1.812-4.318,5.295-7.759,9.638-9.521C240.798,115.251,237.315,111.81,235.503,107.492z"/>
<path opacity="0" fill="#E6282B" d="M267.77,107.493c-1.811,4.317-5.294,7.758-9.638,9.519c4.344,1.762,7.827,5.202,9.638,9.521
	c1.811-4.318,5.295-7.759,9.639-9.521C273.065,115.251,269.581,111.81,267.77,107.493z"/>
<path fill="#E6282B" d="M300.038,107.492c-1.812,4.318-5.294,7.759-9.638,9.52c4.344,1.762,7.827,5.202,9.638,9.521
	c1.81-4.318,5.294-7.759,9.637-9.521C305.331,115.251,301.848,111.81,300.038,107.492z"/>
<path fill="#E6282B" d="M332.304,107.493c-1.812,4.318-5.295,7.758-9.638,9.519c4.343,1.762,7.827,5.202,9.638,9.519
	c1.811-4.317,5.293-7.758,9.638-9.519C337.597,115.251,334.114,111.81,332.304,107.493z"/>
<path fill="#E6282B" d="M364.57,107.492c-1.811,4.318-5.294,7.759-9.639,9.52c4.345,1.762,7.827,5.202,9.639,9.521
	c1.812-4.318,5.294-7.759,9.638-9.521C369.864,115.251,366.382,111.81,364.57,107.492z"/>
<path fill="#E6282B" d="M396.837,107.492c-1.812,4.318-5.295,7.759-9.638,9.52c4.343,1.762,7.826,5.202,9.638,9.521
	c1.811-4.318,5.294-7.759,9.637-9.521C402.131,115.251,398.648,111.81,396.837,107.492z"/>
<path fill="#E6282B" d="M429.102,107.492c-1.811,4.318-5.294,7.759-9.637,9.52c4.343,1.762,7.825,5.202,9.637,9.521
	c1.812-4.318,5.294-7.759,9.638-9.521C434.396,115.251,430.914,111.81,429.102,107.492z"/>
<path fill="#E6282B" d="M461.369,107.492c-1.81,4.318-5.294,7.759-9.638,9.52c4.344,1.762,7.828,5.202,9.638,9.521
	c1.812-4.318,5.294-7.759,9.639-9.521C466.663,115.251,463.181,111.81,461.369,107.492z"/>
<path fill="#E6282B" d="M493.636,107.493c-1.812,4.318-5.294,7.758-9.639,9.519c4.345,1.762,7.827,5.202,9.639,9.519
	c1.812-4.317,5.294-7.758,9.639-9.519C498.93,115.251,495.447,111.81,493.636,107.493z"/>
<path fill="#E6282B" d="M525.901,107.492c-1.812,4.318-5.294,7.759-9.637,9.52c4.343,1.762,7.825,5.202,9.637,9.521
	c1.812-4.318,5.294-7.759,9.639-9.521C531.196,115.251,527.713,111.81,525.901,107.492z"/>
<path opacity="0" fill="#E6282B" d="M41.905,74.836c-1.812,4.316-5.295,7.758-9.639,9.519c4.343,1.761,7.827,5.201,9.639,9.52
	c1.81-4.318,5.294-7.759,9.638-9.52C47.199,82.594,43.716,79.152,41.905,74.836z"/>
<path opacity="0" fill="#E6282B" d="M41.905,107.493c-1.812,4.317-5.295,7.758-9.638,9.519c4.343,1.762,7.827,5.202,9.638,9.521
	c1.81-4.318,5.294-7.759,9.638-9.521C47.199,115.251,43.716,111.81,41.905,107.493z"/>
<path fill="#E6282B" d="M558.169,107.493c-1.812,4.318-5.294,7.758-9.638,9.519c4.344,1.762,7.827,5.202,9.638,9.519
	c1.811-4.317,5.294-7.758,9.638-9.519C563.463,115.251,559.98,111.81,558.169,107.493z"/>
<path fill="#E6282B" d="M558.169,74.836c-1.812,4.316-5.294,7.758-9.638,9.519c4.344,1.761,7.827,5.201,9.638,9.52
	c1.811-4.318,5.294-7.759,9.639-9.52C563.463,82.594,559.98,79.152,558.169,74.836z"/>
<path fill="#E6282B" d="M558.169,61.215c1.811-4.317,5.294-7.757,9.639-9.517c-4.345-1.762-7.828-5.202-9.639-9.52
	c-1.812,4.318-5.294,7.758-9.638,9.52C552.875,53.458,556.357,56.897,558.169,61.215z"/>
<path fill="#E6282B" d="M525.901,28.559c1.812-4.318,5.294-7.759,9.639-9.521c-4.344-1.76-7.827-5.2-9.639-9.519
	c-1.812,4.318-5.294,7.758-9.637,9.519C520.607,20.8,524.089,24.241,525.901,28.559z"/>
<path fill="#E6282B" d="M493.636,28.558c1.812-4.317,5.294-7.758,9.639-9.52c-4.344-1.76-7.827-5.2-9.639-9.518
	c-1.812,4.317-5.294,7.757-9.639,9.518C488.342,20.8,491.824,24.24,493.636,28.558z"/>
<path fill="#E6282B" d="M461.369,28.559c1.812-4.318,5.294-7.759,9.639-9.521c-4.344-1.76-7.827-5.2-9.639-9.519
	c-1.81,4.318-5.294,7.758-9.638,9.519C456.075,20.8,459.559,24.24,461.369,28.559z"/>
<path fill="#E6282B" d="M429.102,28.559c1.812-4.318,5.294-7.759,9.638-9.521c-4.344-1.76-7.826-5.2-9.638-9.518
	c-1.811,4.318-5.294,7.758-9.637,9.518C423.809,20.8,427.291,24.24,429.102,28.559z"/>
<path opacity="0" fill="#E6282B" d="M396.837,28.559c1.811-4.318,5.294-7.759,9.637-9.521c-4.343-1.76-7.826-5.2-9.637-9.518
	c-1.812,4.318-5.295,7.758-9.638,9.518C391.542,20.8,395.025,24.24,396.837,28.559z"/>
<path opacity="0" fill="#E6282B" d="M364.57,9.519c-1.811,4.318-5.294,7.758-9.639,9.519c4.345,1.762,7.827,5.203,9.639,9.521
	c1.812-4.318,5.294-7.759,9.638-9.521C369.864,17.277,366.382,13.837,364.57,9.519z"/>
<path opacity="0" fill="#E6282B" d="M332.304,9.52c-1.812,4.317-5.295,7.757-9.638,9.518c4.343,1.762,7.827,5.203,9.638,9.52
	c1.811-4.317,5.293-7.758,9.638-9.52C337.597,17.277,334.114,13.837,332.304,9.52z"/>
<path opacity="0" fill="#E6282B" d="M300.038,28.559c1.81-4.318,5.294-7.759,9.637-9.521c-4.343-1.76-7.826-5.2-9.637-9.519
	c-1.812,4.318-5.294,7.758-9.638,9.519C294.743,20.8,298.226,24.241,300.038,28.559z"/>
<path opacity="0" fill="#E6282B" d="M267.771,28.558c1.811-4.317,5.295-7.758,9.638-9.52c-4.343-1.76-7.827-5.2-9.638-9.518
	c-1.811,4.318-5.294,7.758-9.638,9.518C262.477,20.8,265.959,24.24,267.771,28.558z"/>
<path opacity="0" fill="#E6282B" d="M235.503,28.559c1.812-4.318,5.295-7.759,9.638-9.521c-4.344-1.76-7.827-5.2-9.638-9.519
	c-1.811,4.318-5.294,7.758-9.638,9.519C230.209,20.8,233.692,24.24,235.503,28.559z"/>
<path opacity="0" fill="#E6282B" d="M203.238,9.519c-1.811,4.318-5.294,7.758-9.638,9.519c4.344,1.762,7.827,5.203,9.638,9.521
	c1.812-4.318,5.294-7.759,9.638-9.521C208.532,17.277,205.05,13.837,203.238,9.519z"/>
<path opacity="0" fill="#E6282B" d="M170.971,9.519c-1.812,4.318-5.294,7.758-9.638,9.519c4.344,1.762,7.827,5.203,9.638,9.521
	c1.812-4.318,5.294-7.759,9.638-9.521C176.265,17.277,172.783,13.837,170.971,9.519z"/>
<path opacity="0" fill="#E6282B" d="M138.704,28.558c1.81-4.317,5.294-7.758,9.638-9.52c-4.344-1.76-7.827-5.2-9.638-9.518
	c-1.812,4.318-5.294,7.758-9.638,9.518C133.41,20.8,136.893,24.24,138.704,28.558z"/>
<path opacity="0" fill="#E6282B" d="M106.437,28.559c1.812-4.318,5.295-7.759,9.639-9.521c-4.344-1.76-7.827-5.2-9.639-9.519
	c-1.81,4.318-5.293,7.758-9.637,9.519C101.144,20.8,104.627,24.24,106.437,28.559z"/>
<path opacity="0" fill="#E6282B" d="M74.171,9.519c-1.81,4.318-5.294,7.758-9.638,9.518c4.344,1.762,7.827,5.203,9.638,9.52
	c1.812-4.317,5.295-7.758,9.639-9.52C79.466,17.277,75.983,13.837,74.171,9.519z"/>
<path opacity="0" fill="#E6282B" d="M41.905,9.519c-1.812,4.318-5.295,7.758-9.638,9.518c4.343,1.762,7.827,5.203,9.638,9.52
	c1.81-4.317,5.294-7.758,9.638-9.52C47.199,17.277,43.716,13.837,41.905,9.519z"/>
<path fill="#E6282B" d="M9.639,42.177C7.827,46.495,4.343,49.935,0,51.697c4.343,1.761,7.827,5.2,9.639,9.518
	c1.81-4.318,5.294-7.758,9.638-9.518C14.933,49.935,11.449,46.495,9.639,42.177z"/>
<path fill="#E6282B" d="M9.639,74.836C7.827,79.152,4.343,82.594,0,84.354c4.343,1.761,7.827,5.201,9.639,9.52
	c1.81-4.318,5.294-7.759,9.638-9.52C14.933,82.594,11.449,79.152,9.639,74.836z"/>
<path fill="#E6282B" d="M9.639,107.493c-1.812,4.317-5.295,7.758-9.638,9.519c4.343,1.762,7.827,5.202,9.638,9.521
	c1.81-4.318,5.294-7.759,9.638-9.521C14.933,115.251,11.449,111.81,9.639,107.493z"/>
<path fill="#E6282B" d="M9.639,9.519C7.827,13.837,4.343,17.277,0,19.038c4.343,1.762,7.827,5.203,9.638,9.52
	c1.81-4.317,5.294-7.758,9.638-9.52C14.933,17.277,11.449,13.837,9.639,9.519z"/>
<path fill="#E6282B" d="M751.769,28.559c1.811-4.317,5.294-7.758,9.638-9.52c-4.344-1.76-7.827-5.2-9.638-9.518
	c-1.812,4.317-5.294,7.757-9.638,9.518C746.475,20.801,749.957,24.241,751.769,28.559z"/>
<path fill="#E6282B" d="M590.438,42.178c-1.812,4.318-5.295,7.759-9.639,9.521c4.344,1.761,7.827,5.2,9.639,9.518
	c1.811-4.318,5.294-7.758,9.637-9.518C595.732,49.936,592.249,46.496,590.438,42.178z"/>
<path fill="#E6282B" d="M622.703,42.178c-1.812,4.318-5.294,7.759-9.638,9.521c4.344,1.761,7.826,5.2,9.638,9.518
	c1.811-4.318,5.293-7.758,9.638-9.518C627.996,49.936,624.514,46.496,622.703,42.178z"/>
<path fill="#E6282B" d="M654.969,42.178c-1.81,4.318-5.294,7.759-9.638,9.521c4.344,1.761,7.828,5.2,9.638,9.518
	c1.812-4.318,5.295-7.758,9.64-9.518C660.264,49.936,656.781,46.496,654.969,42.178z"/>
<path fill="#E6282B" d="M687.236,42.178c-1.811,4.318-5.294,7.758-9.639,9.52c4.345,1.761,7.828,5.2,9.639,9.517
	c1.812-4.317,5.295-7.757,9.639-9.517C692.531,49.936,689.048,46.496,687.236,42.178z"/>
<path fill="#E6282B" d="M719.502,42.177c-1.812,4.319-5.294,7.759-9.638,9.521c4.344,1.761,7.826,5.2,9.638,9.518
	c1.812-4.318,5.294-7.758,9.639-9.518C724.797,49.936,721.314,46.496,719.502,42.177z"/>
<path fill="#E6282B" d="M590.438,74.837c-1.812,4.316-5.295,7.758-9.639,9.519c4.344,1.761,7.827,5.201,9.639,9.52
	c1.811-4.318,5.294-7.759,9.637-9.52C595.732,82.595,592.249,79.153,590.438,74.837z"/>
<path fill="#E6282B" d="M622.703,74.837c-1.812,4.316-5.294,7.758-9.638,9.519c4.344,1.761,7.826,5.201,9.638,9.52
	c1.811-4.318,5.293-7.759,9.638-9.52C627.996,82.595,624.514,79.153,622.703,74.837z"/>
<path fill="#E6282B" d="M654.969,74.837c-1.81,4.316-5.294,7.758-9.638,9.519c4.344,1.761,7.828,5.202,9.638,9.52
	c1.812-4.318,5.295-7.759,9.64-9.52C660.264,82.595,656.781,79.153,654.969,74.837z"/>
<path fill="#E6282B" d="M687.236,74.837c-1.811,4.316-5.294,7.758-9.639,9.519c4.345,1.761,7.828,5.201,9.639,9.52
	c1.812-4.318,5.295-7.759,9.639-9.52C692.531,82.595,689.048,79.153,687.236,74.837z"/>
<path fill="#E6282B" d="M719.502,74.836c-1.812,4.317-5.294,7.759-9.638,9.52c4.344,1.761,7.826,5.202,9.638,9.52
	c1.812-4.318,5.294-7.759,9.639-9.52C724.797,82.595,721.314,79.153,719.502,74.836z"/>
<path fill="#E6282B" d="M590.437,107.493c-1.812,4.318-5.295,7.759-9.638,9.52c4.343,1.762,7.826,5.202,9.638,9.521
	c1.811-4.318,5.294-7.759,9.637-9.521C595.731,115.252,592.248,111.811,590.437,107.493z"/>
<path fill="#E6282B" d="M622.702,107.493c-1.811,4.318-5.294,7.759-9.637,9.52c4.343,1.762,7.825,5.202,9.637,9.521
	c1.812-4.318,5.294-7.759,9.638-9.521C627.996,115.252,624.514,111.811,622.702,107.493z"/>
<path fill="#E6282B" d="M654.969,107.493c-1.81,4.318-5.294,7.759-9.638,9.52c4.344,1.762,7.828,5.202,9.638,9.521
	c1.812-4.318,5.294-7.759,9.639-9.521C660.263,115.252,656.781,111.811,654.969,107.493z"/>
<path fill="#E6282B" d="M687.236,107.494c-1.812,4.318-5.294,7.758-9.639,9.519c4.345,1.762,7.827,5.202,9.639,9.519
	c1.812-4.317,5.294-7.758,9.639-9.519C692.53,115.252,689.047,111.811,687.236,107.494z"/>
<path fill="#E6282B" d="M719.501,107.493c-1.812,4.318-5.294,7.759-9.637,9.52c4.343,1.762,7.825,5.202,9.637,9.521
	c1.812-4.318,5.294-7.759,9.639-9.521C724.796,115.252,721.313,111.811,719.501,107.493z"/>
<path fill="#E6282B" d="M751.769,107.494c-1.812,4.318-5.294,7.758-9.638,9.519c4.344,1.762,7.827,5.202,9.638,9.519
	c1.811-4.317,5.294-7.758,9.638-9.519C757.063,115.252,753.58,111.811,751.769,107.494z"/>
<path fill="#E6282B" d="M751.769,74.837c-1.812,4.316-5.294,7.758-9.638,9.519c4.344,1.761,7.827,5.201,9.638,9.52
	c1.811-4.318,5.294-7.759,9.639-9.52C757.063,82.595,753.58,79.153,751.769,74.837z"/>
<path fill="#E6282B" d="M751.769,61.216c1.811-4.317,5.294-7.757,9.639-9.517c-4.345-1.762-7.828-5.202-9.639-9.52
	c-1.812,4.318-5.294,7.758-9.638,9.52C746.475,53.459,749.957,56.898,751.769,61.216z"/>
<path fill="#E6282B" d="M719.501,28.56c1.812-4.318,5.294-7.759,9.639-9.521c-4.344-1.76-7.827-5.2-9.639-9.519
	c-1.812,4.318-5.294,7.758-9.637,9.519C714.207,20.801,717.689,24.242,719.501,28.56z"/>
<path fill="#E6282B" d="M687.236,28.559c1.812-4.317,5.294-7.758,9.639-9.52c-4.344-1.76-7.827-5.2-9.639-9.518
	c-1.812,4.317-5.294,7.757-9.639,9.518C681.942,20.801,685.424,24.241,687.236,28.559z"/>
<path fill="#E6282B" d="M654.969,28.56c1.812-4.318,5.294-7.759,9.639-9.521c-4.344-1.76-7.827-5.2-9.639-9.519
	c-1.81,4.318-5.294,7.758-9.638,9.519C649.675,20.801,653.159,24.241,654.969,28.56z"/>
<path fill="#E6282B" d="M622.702,28.56c1.812-4.318,5.294-7.759,9.638-9.521c-4.344-1.76-7.826-5.2-9.638-9.518
	c-1.811,4.318-5.294,7.758-9.637,9.518C617.409,20.801,620.891,24.241,622.702,28.56z"/>
<path fill="#E6282B" d="M590.437,28.56c1.811-4.318,5.294-7.759,9.637-9.521c-4.343-1.76-7.826-5.2-9.637-9.518
	c-1.812,4.318-5.295,7.758-9.638,9.518C585.142,20.801,588.625,24.241,590.437,28.56z"/>
<path fill="#E6282B" d="M-119.428,42.175c-1.812,4.318-5.294,7.759-9.638,9.521c4.344,1.761,7.826,5.2,9.638,9.518
	c1.811-4.318,5.293-7.758,9.638-9.518C-114.135,49.933-117.617,46.493-119.428,42.175z"/>
<path fill="#E6282B" d="M-119.428,74.834c-1.812,4.316-5.294,7.758-9.638,9.519c4.344,1.761,7.826,5.201,9.638,9.52
	c1.811-4.318,5.293-7.759,9.638-9.52C-114.135,82.592-117.617,79.15-119.428,74.834z"/>
<path fill="#E6282B" d="M-119.429,107.49c-1.811,4.318-5.294,7.759-9.637,9.52c4.343,1.762,7.825,5.202,9.637,9.521
	c1.812-4.318,5.294-7.759,9.638-9.521C-114.135,115.249-117.617,111.808-119.429,107.49z"/>
<path fill="#E6282B" d="M-119.429,28.557c1.812-4.318,5.294-7.759,9.638-9.521c-4.344-1.76-7.826-5.2-9.638-9.518
	c-1.811,4.318-5.294,7.758-9.637,9.518C-124.722,20.798-121.24,24.238-119.429,28.557z"/>
<path fill="#E6282B" d="M-87.162,42.175c-1.81,4.318-5.294,7.759-9.638,9.521c4.344,1.761,7.828,5.2,9.638,9.518
	c1.812-4.318,5.295-7.758,9.64-9.518C-81.867,49.933-85.35,46.493-87.162,42.175z"/>
<path fill="#E6282B" d="M-54.895,42.175c-1.811,4.318-5.294,7.758-9.639,9.52c4.345,1.761,7.828,5.2,9.639,9.517
	c1.812-4.317,5.295-7.757,9.639-9.517C-49.6,49.933-53.083,46.493-54.895,42.175z"/>
<path fill="#E6282B" d="M-22.629,42.174c-1.812,4.319-5.294,7.759-9.638,9.521c4.344,1.761,7.826,5.2,9.638,9.518
	c1.812-4.318,5.294-7.758,9.639-9.518C-17.334,49.933-20.817,46.493-22.629,42.174z"/>
<path fill="#E6282B" d="M-87.162,74.834c-1.81,4.316-5.294,7.758-9.638,9.519c4.344,1.761,7.828,5.202,9.638,9.52
	c1.812-4.318,5.295-7.759,9.64-9.52C-81.867,82.592-85.35,79.15-87.162,74.834z"/>
<path fill="#E6282B" d="M-54.895,74.834c-1.811,4.316-5.294,7.758-9.639,9.519c4.345,1.761,7.828,5.201,9.639,9.52
	c1.812-4.318,5.295-7.759,9.639-9.52C-49.6,82.592-53.083,79.15-54.895,74.834z"/>
<path fill="#E6282B" d="M-22.629,74.833c-1.812,4.317-5.294,7.759-9.638,9.52c4.344,1.761,7.826,5.202,9.638,9.52
	c1.812-4.318,5.294-7.759,9.639-9.52C-17.334,82.592-20.817,79.15-22.629,74.833z"/>
<path fill="#E6282B" d="M-87.162,107.49c-1.81,4.318-5.294,7.759-9.638,9.52c4.344,1.762,7.828,5.202,9.638,9.521
	c1.812-4.318,5.294-7.759,9.639-9.521C-81.868,115.249-85.35,111.808-87.162,107.49z"/>
<path fill="#E6282B" d="M-54.895,107.491c-1.812,4.318-5.294,7.758-9.639,9.519c4.345,1.762,7.827,5.202,9.639,9.519
	c1.812-4.317,5.294-7.758,9.639-9.519C-49.601,115.249-53.084,111.808-54.895,107.491z"/>
<path fill="#E6282B" d="M-22.63,107.49c-1.812,4.318-5.294,7.759-9.637,9.52c4.343,1.762,7.825,5.202,9.637,9.521
	c1.812-4.318,5.294-7.759,9.639-9.521C-17.335,115.249-20.818,111.808-22.63,107.49z"/>
<path fill="#E6282B" d="M-22.63,28.557c1.812-4.318,5.294-7.759,9.639-9.521c-4.344-1.76-7.827-5.2-9.639-9.519
	c-1.812,4.318-5.294,7.758-9.637,9.519C-27.924,20.798-24.442,24.239-22.63,28.557z"/>
<path fill="#E6282B" d="M-54.895,28.556c1.812-4.317,5.294-7.758,9.639-9.52c-4.344-1.76-7.827-5.2-9.639-9.518
	c-1.812,4.317-5.294,7.757-9.639,9.518C-60.189,20.798-56.707,24.238-54.895,28.556z"/>
<path fill="#E6282B" d="M-87.162,28.557c1.812-4.318,5.294-7.759,9.639-9.521c-4.344-1.76-7.827-5.2-9.639-9.519
	c-1.81,4.318-5.294,7.758-9.638,9.519C-92.456,20.798-88.972,24.238-87.162,28.557z"/>
</svg>
