<?xml version="1.0" encoding="utf-8"?>
<!-- Generator: Adobe Illustrator 17.0.0, SVG Export Plug-In . SVG Version: 6.00 Build 0)  -->
<!DOCTYPE svg PUBLIC "-//W3C//DTD SVG 1.1//EN" "http://www.w3.org/Graphics/SVG/1.1/DTD/svg11.dtd">
<svg version="1.1" id="Layer_1" xmlns="http://www.w3.org/2000/svg" xmlns:xlink="http://www.w3.org/1999/xlink" x="0px" y="0px"
	 width="567.808px" height="117.013px" viewBox="0 0 567.808 117.013" enable-background="new 0 0 567.808 117.013"
	 xml:space="preserve">
<path fill="#E6282B" d="M558.169,19.039c1.811-4.317,5.294-7.758,9.638-9.52c-4.344-1.76-7.827-5.2-9.638-9.518
	c-1.812,4.317-5.294,7.757-9.638,9.518C552.875,11.281,556.357,14.721,558.169,19.039z"/>
<path fill="#E6282B" d="M41.905,32.658c-1.812,4.318-5.295,7.758-9.639,9.52c4.343,1.761,7.827,5.2,9.639,9.518
	c1.81-4.318,5.294-7.758,9.638-9.518C47.199,40.416,43.716,36.976,41.905,32.658z"/>
<path opacity="0" fill="#1D1D1B" d="M74.17,32.658c-1.811,4.318-5.293,7.758-9.637,9.52c4.344,1.761,7.827,5.2,9.637,9.518
	c1.812-4.318,5.295-7.758,9.64-9.518C79.465,40.416,75.982,36.976,74.17,32.658z"/>
<path opacity="0" fill="#1D1D1B" d="M106.437,32.658c-1.81,4.318-5.294,7.759-9.638,9.521c4.344,1.761,7.828,5.2,9.638,9.518
	c1.812-4.318,5.295-7.758,9.64-9.518C111.732,40.416,108.249,36.976,106.437,32.658z"/>
<path opacity="0" fill="#1D1D1B" d="M138.704,32.658c-1.812,4.318-5.294,7.758-9.638,9.52c4.344,1.761,7.826,5.2,9.638,9.518
	c1.811-4.318,5.294-7.758,9.639-9.518C143.998,40.416,140.515,36.976,138.704,32.658z"/>
<path opacity="0" fill="#1D1D1B" d="M170.971,32.658c-1.812,4.318-5.294,7.759-9.638,9.521c4.344,1.761,7.827,5.2,9.638,9.518
	c1.812-4.318,5.295-7.758,9.638-9.518C176.266,40.416,172.783,36.976,170.971,32.658z"/>
<path opacity="0" fill="#1D1D1B" d="M203.238,32.658c-1.811,4.318-5.295,7.759-9.638,9.521c4.343,1.761,7.827,5.2,9.638,9.518
	c1.812-4.318,5.294-7.758,9.638-9.518C208.532,40.416,205.05,36.976,203.238,32.658z"/>
<path opacity="0" fill="#1D1D1B" d="M235.504,32.658c-1.811,4.318-5.294,7.759-9.638,9.521c4.344,1.761,7.827,5.2,9.638,9.518
	c1.811-4.318,5.294-7.758,9.638-9.518C240.798,40.416,237.315,36.976,235.504,32.658z"/>
<path opacity="0" fill="#1D1D1B" d="M267.771,32.658c-1.811,4.318-5.294,7.758-9.639,9.52c4.345,1.761,7.828,5.2,9.639,9.518
	c1.811-4.318,5.295-7.758,9.639-9.518C273.065,40.416,269.581,36.976,267.771,32.658z"/>
<path opacity="0" fill="#1D1D1B" d="M300.038,32.657c-1.812,4.319-5.294,7.759-9.639,9.521c4.344,1.761,7.827,5.2,9.639,9.518
	c1.81-4.318,5.294-7.758,9.638-9.518C305.331,40.416,301.848,36.976,300.038,32.657z"/>
<path fill="#E6282B" d="M332.304,32.658c-1.812,4.318-5.295,7.758-9.639,9.52c4.344,1.761,7.827,5.2,9.639,9.517
	c1.811-4.317,5.293-7.757,9.638-9.517C337.597,40.416,334.114,36.976,332.304,32.658z"/>
<path fill="#E6282B" d="M364.57,32.658c-1.811,4.318-5.294,7.759-9.639,9.521c4.345,1.761,7.827,5.2,9.639,9.518
	c1.812-4.318,5.294-7.758,9.638-9.518C369.864,40.416,366.382,36.976,364.57,32.658z"/>
<path fill="#E6282B" d="M396.838,32.658c-1.812,4.318-5.295,7.759-9.639,9.521c4.344,1.761,7.827,5.2,9.639,9.518
	c1.811-4.318,5.294-7.758,9.637-9.518C402.132,40.416,398.649,36.976,396.838,32.658z"/>
<path fill="#E6282B" d="M429.103,32.658c-1.812,4.318-5.294,7.759-9.638,9.521c4.344,1.761,7.826,5.2,9.638,9.518
	c1.811-4.318,5.293-7.758,9.638-9.518C434.396,40.416,430.914,36.976,429.103,32.658z"/>
<path fill="#E6282B" d="M461.369,32.658c-1.81,4.318-5.294,7.759-9.638,9.521c4.344,1.761,7.828,5.2,9.638,9.518
	c1.812-4.318,5.295-7.758,9.64-9.518C466.664,40.416,463.181,36.976,461.369,32.658z"/>
<path fill="#E6282B" d="M493.636,32.658c-1.811,4.318-5.294,7.758-9.639,9.52c4.345,1.761,7.828,5.2,9.639,9.517
	c1.812-4.317,5.295-7.757,9.639-9.517C498.931,40.416,495.448,36.976,493.636,32.658z"/>
<path fill="#E6282B" d="M525.902,32.657c-1.812,4.319-5.294,7.759-9.638,9.521c4.344,1.761,7.826,5.2,9.638,9.518
	c1.812-4.318,5.294-7.758,9.639-9.518C531.197,40.416,527.714,36.976,525.902,32.657z"/>
<path opacity="0" fill="#1D1D1B" d="M74.17,65.317c-1.811,4.316-5.293,7.758-9.637,9.519c4.344,1.761,7.827,5.201,9.637,9.52
	c1.812-4.318,5.295-7.759,9.64-9.52C79.465,73.075,75.982,69.633,74.17,65.317z"/>
<path opacity="0" fill="#1D1D1B" d="M106.437,65.317c-1.81,4.316-5.294,7.758-9.638,9.519c4.344,1.761,7.828,5.202,9.638,9.52
	c1.812-4.318,5.295-7.759,9.64-9.52C111.732,73.075,108.249,69.633,106.437,65.317z"/>
<path opacity="0" fill="#1D1D1B" d="M138.704,65.317c-1.812,4.316-5.294,7.758-9.638,9.519c4.344,1.761,7.826,5.201,9.638,9.52
	c1.811-4.318,5.294-7.759,9.639-9.52C143.998,73.075,140.515,69.633,138.704,65.317z"/>
<path opacity="0" fill="#1D1D1B" d="M170.971,65.317c-1.812,4.316-5.294,7.758-9.638,9.519c4.344,1.761,7.827,5.201,9.638,9.52
	c1.812-4.318,5.295-7.759,9.638-9.52C176.266,73.075,172.783,69.633,170.971,65.317z"/>
<path opacity="0" fill="#1D1D1B" d="M203.238,65.317c-1.811,4.316-5.295,7.758-9.638,9.519c4.343,1.761,7.827,5.201,9.638,9.52
	c1.812-4.318,5.294-7.759,9.638-9.52C208.532,73.075,205.05,69.633,203.238,65.317z"/>
<path opacity="0" fill="#1D1D1B" d="M235.504,65.317c-1.811,4.316-5.294,7.758-9.638,9.519c4.344,1.761,7.827,5.201,9.638,9.52
	c1.811-4.318,5.294-7.759,9.638-9.52C240.798,73.075,237.315,69.633,235.504,65.317z"/>
<path opacity="0" fill="#1D1D1B" d="M267.771,65.317c-1.811,4.316-5.294,7.758-9.639,9.519c4.345,1.761,7.828,5.201,9.639,9.52
	c1.811-4.318,5.295-7.759,9.639-9.52C273.065,73.075,269.581,69.633,267.771,65.317z"/>
<path opacity="0" fill="#1D1D1B" d="M300.038,65.316c-1.812,4.317-5.294,7.759-9.639,9.52c4.344,1.761,7.827,5.202,9.639,9.52
	c1.81-4.318,5.294-7.759,9.638-9.52C305.331,73.075,301.848,69.633,300.038,65.316z"/>
<path fill="#E6282B" d="M332.304,65.317c-1.812,4.316-5.295,7.758-9.639,9.519c4.344,1.761,7.827,5.201,9.639,9.52
	c1.811-4.318,5.293-7.759,9.638-9.52C337.597,73.075,334.114,69.633,332.304,65.317z"/>
<path fill="#E6282B" d="M364.57,65.317c-1.811,4.316-5.294,7.758-9.639,9.519c4.345,1.761,7.827,5.202,9.639,9.52
	c1.812-4.318,5.294-7.759,9.638-9.52C369.864,73.075,366.382,69.633,364.57,65.317z"/>
<path fill="#E6282B" d="M396.838,65.317c-1.812,4.316-5.295,7.758-9.639,9.519c4.344,1.761,7.827,5.201,9.639,9.52
	c1.811-4.318,5.294-7.759,9.637-9.52C402.132,73.075,398.649,69.633,396.838,65.317z"/>
<path fill="#E6282B" d="M429.103,65.317c-1.812,4.316-5.294,7.758-9.638,9.519c4.344,1.761,7.826,5.201,9.638,9.52
	c1.811-4.318,5.293-7.759,9.638-9.52C434.396,73.075,430.914,69.633,429.103,65.317z"/>
<path fill="#E6282B" d="M461.369,65.317c-1.81,4.316-5.294,7.758-9.638,9.519c4.344,1.761,7.828,5.202,9.638,9.52
	c1.812-4.318,5.295-7.759,9.64-9.52C466.664,73.075,463.181,69.633,461.369,65.317z"/>
<path fill="#E6282B" d="M493.636,65.317c-1.811,4.316-5.294,7.758-9.639,9.519c4.345,1.761,7.828,5.201,9.639,9.52
	c1.812-4.318,5.295-7.759,9.639-9.52C498.931,73.075,495.448,69.633,493.636,65.317z"/>
<path fill="#E6282B" d="M525.902,65.316c-1.812,4.317-5.294,7.759-9.638,9.52c4.344,1.761,7.826,5.202,9.638,9.52
	c1.812-4.318,5.294-7.759,9.639-9.52C531.197,73.075,527.714,69.633,525.902,65.316z"/>
<path fill="#E6282B" d="M74.171,97.974c-1.81,4.317-5.294,7.758-9.638,9.519c4.344,1.762,7.827,5.202,9.638,9.521
	c1.812-4.318,5.295-7.759,9.639-9.521C79.466,105.732,75.983,102.291,74.171,97.974z"/>
<path fill="#E6282B" d="M106.437,97.973c-1.81,4.318-5.293,7.759-9.638,9.52c4.345,1.762,7.828,5.202,9.638,9.521
	c1.812-4.318,5.295-7.759,9.64-9.521C111.732,105.732,108.249,102.291,106.437,97.973z"/>
<path fill="#E6282B" d="M138.704,97.974c-1.812,4.317-5.294,7.758-9.638,9.519c4.344,1.762,7.826,5.202,9.638,9.521
	c1.811-4.318,5.294-7.759,9.638-9.521C143.998,105.732,140.515,102.291,138.704,97.974z"/>
<path fill="#E6282B" d="M170.971,97.973c-1.812,4.318-5.294,7.759-9.638,9.52c4.344,1.762,7.827,5.202,9.638,9.521
	c1.812-4.318,5.294-7.759,9.638-9.521C176.265,105.732,172.783,102.291,170.971,97.973z"/>
<path fill="#E6282B" d="M203.238,97.973c-1.811,4.318-5.294,7.759-9.638,9.52c4.344,1.762,7.827,5.202,9.638,9.521
	c1.812-4.318,5.294-7.759,9.638-9.521C208.532,105.732,205.05,102.291,203.238,97.973z"/>
<path fill="#E6282B" d="M235.503,97.973c-1.811,4.318-5.294,7.759-9.638,9.52c4.344,1.762,7.827,5.202,9.638,9.521
	c1.812-4.318,5.295-7.759,9.638-9.521C240.798,105.732,237.315,102.291,235.503,97.973z"/>
<path fill="#E6282B" d="M267.77,97.974c-1.811,4.317-5.294,7.758-9.638,9.519c4.344,1.762,7.827,5.202,9.638,9.521
	c1.811-4.318,5.295-7.759,9.639-9.521C273.065,105.732,269.581,102.291,267.77,97.974z"/>
<path fill="#E6282B" d="M300.038,97.973c-1.812,4.318-5.294,7.759-9.638,9.52c4.344,1.762,7.827,5.202,9.638,9.521
	c1.81-4.318,5.294-7.759,9.637-9.521C305.331,105.732,301.848,102.291,300.038,97.973z"/>
<path fill="#E6282B" d="M332.304,97.974c-1.812,4.318-5.295,7.758-9.638,9.519c4.343,1.762,7.827,5.202,9.638,9.519
	c1.811-4.317,5.293-7.758,9.638-9.519C337.597,105.732,334.114,102.291,332.304,97.974z"/>
<path fill="#E6282B" d="M364.57,97.973c-1.811,4.318-5.294,7.759-9.639,9.52c4.345,1.762,7.827,5.202,9.639,9.521
	c1.812-4.318,5.294-7.759,9.638-9.521C369.864,105.732,366.382,102.291,364.57,97.973z"/>
<path fill="#E6282B" d="M396.837,97.973c-1.812,4.318-5.295,7.759-9.638,9.52c4.343,1.762,7.826,5.202,9.638,9.521
	c1.811-4.318,5.294-7.759,9.637-9.521C402.131,105.732,398.648,102.291,396.837,97.973z"/>
<path fill="#E6282B" d="M429.102,97.973c-1.811,4.318-5.294,7.759-9.637,9.52c4.343,1.762,7.825,5.202,9.637,9.521
	c1.812-4.318,5.294-7.759,9.638-9.521C434.396,105.732,430.914,102.291,429.102,97.973z"/>
<path fill="#E6282B" d="M461.369,97.973c-1.81,4.318-5.294,7.759-9.638,9.52c4.344,1.762,7.828,5.202,9.638,9.521
	c1.812-4.318,5.294-7.759,9.639-9.521C466.663,105.732,463.181,102.291,461.369,97.973z"/>
<path fill="#E6282B" d="M493.636,97.974c-1.812,4.318-5.294,7.758-9.639,9.519c4.345,1.762,7.827,5.202,9.639,9.519
	c1.812-4.317,5.294-7.758,9.639-9.519C498.93,105.732,495.447,102.291,493.636,97.974z"/>
<path fill="#E6282B" d="M525.901,97.973c-1.812,4.318-5.294,7.759-9.637,9.52c4.343,1.762,7.825,5.202,9.637,9.521
	c1.812-4.318,5.294-7.759,9.639-9.521C531.196,105.732,527.713,102.291,525.901,97.973z"/>
<path fill="#E6282B" d="M41.905,65.317c-1.812,4.316-5.295,7.758-9.639,9.519c4.343,1.761,7.827,5.201,9.639,9.52
	c1.81-4.318,5.294-7.759,9.638-9.52C47.199,73.075,43.716,69.633,41.905,65.317z"/>
<path fill="#E6282B" d="M41.905,97.974c-1.812,4.317-5.295,7.758-9.638,9.519c4.343,1.762,7.827,5.202,9.638,9.521
	c1.81-4.318,5.294-7.759,9.638-9.521C47.199,105.732,43.716,102.291,41.905,97.974z"/>
<path fill="#E6282B" d="M558.169,97.974c-1.812,4.318-5.294,7.758-9.638,9.519c4.344,1.762,7.827,5.202,9.638,9.519
	c1.811-4.317,5.294-7.758,9.638-9.519C563.463,105.732,559.98,102.291,558.169,97.974z"/>
<path fill="#E6282B" d="M558.169,65.317c-1.812,4.316-5.294,7.758-9.638,9.519c4.344,1.761,7.827,5.201,9.638,9.52
	c1.811-4.318,5.294-7.759,9.639-9.52C563.463,73.075,559.98,69.633,558.169,65.317z"/>
<path fill="#E6282B" d="M558.169,51.696c1.811-4.317,5.294-7.757,9.639-9.517c-4.345-1.762-7.828-5.202-9.639-9.52
	c-1.812,4.318-5.294,7.758-9.638,9.52C552.875,43.939,556.357,47.378,558.169,51.696z"/>
<path fill="#E6282B" d="M525.901,19.04c1.812-4.318,5.294-7.759,9.639-9.521c-4.344-1.76-7.827-5.2-9.639-9.519
	c-1.812,4.318-5.294,7.758-9.637,9.519C520.607,11.281,524.089,14.722,525.901,19.04z"/>
<path fill="#E6282B" d="M493.636,19.039c1.812-4.317,5.294-7.758,9.639-9.52c-4.344-1.76-7.827-5.2-9.639-9.518
	c-1.812,4.317-5.294,7.757-9.639,9.518C488.342,11.281,491.824,14.721,493.636,19.039z"/>
<path fill="#E6282B" d="M461.369,19.04c1.812-4.318,5.294-7.759,9.639-9.521c-4.344-1.76-7.827-5.2-9.639-9.519
	c-1.81,4.318-5.294,7.758-9.638,9.519C456.075,11.281,459.559,14.721,461.369,19.04z"/>
<path fill="#E6282B" d="M429.102,19.04c1.812-4.318,5.294-7.759,9.638-9.521c-4.344-1.76-7.826-5.2-9.638-9.518
	c-1.811,4.318-5.294,7.758-9.637,9.518C423.809,11.281,427.291,14.721,429.102,19.04z"/>
<path fill="#E6282B" d="M396.837,19.04c1.811-4.318,5.294-7.759,9.637-9.521c-4.343-1.76-7.826-5.2-9.637-9.518
	c-1.812,4.318-5.295,7.758-9.638,9.518C391.542,11.281,395.025,14.721,396.837,19.04z"/>
<path fill="#E6282B" d="M364.57,0c-1.811,4.318-5.294,7.758-9.639,9.519c4.345,1.762,7.827,5.203,9.639,9.521
	c1.812-4.318,5.294-7.759,9.638-9.521C369.864,7.758,366.382,4.318,364.57,0z"/>
<path fill="#E6282B" d="M332.304,0.001c-1.812,4.317-5.295,7.757-9.638,9.518c4.343,1.762,7.827,5.203,9.638,9.52
	c1.811-4.317,5.293-7.758,9.638-9.52C337.597,7.758,334.114,4.318,332.304,0.001z"/>
<path fill="#E6282B" d="M300.038,19.04c1.81-4.318,5.294-7.759,9.637-9.521c-4.343-1.76-7.826-5.2-9.637-9.519
	c-1.812,4.318-5.294,7.758-9.638,9.519C294.743,11.281,298.226,14.722,300.038,19.04z"/>
<path fill="#E6282B" d="M267.771,19.039c1.811-4.317,5.295-7.758,9.638-9.52c-4.343-1.76-7.827-5.2-9.638-9.518
	c-1.811,4.318-5.294,7.758-9.638,9.518C262.477,11.281,265.959,14.721,267.771,19.039z"/>
<path fill="#E6282B" d="M235.503,19.04c1.812-4.318,5.295-7.759,9.638-9.521c-4.344-1.76-7.827-5.2-9.638-9.519
	c-1.811,4.318-5.294,7.758-9.638,9.519C230.209,11.281,233.692,14.721,235.503,19.04z"/>
<path fill="#E6282B" d="M203.238,0c-1.811,4.318-5.294,7.758-9.638,9.519c4.344,1.762,7.827,5.203,9.638,9.521
	c1.812-4.318,5.294-7.759,9.638-9.521C208.532,7.758,205.05,4.318,203.238,0z"/>
<path fill="#E6282B" d="M170.971,0c-1.812,4.318-5.294,7.758-9.638,9.519c4.344,1.762,7.827,5.203,9.638,9.521
	c1.812-4.318,5.294-7.759,9.638-9.521C176.265,7.758,172.783,4.318,170.971,0z"/>
<path fill="#E6282B" d="M138.704,19.039c1.81-4.317,5.294-7.758,9.638-9.52c-4.344-1.76-7.827-5.2-9.638-9.518
	c-1.812,4.318-5.294,7.758-9.638,9.518C133.41,11.281,136.893,14.721,138.704,19.039z"/>
<path fill="#E6282B" d="M106.437,19.04c1.812-4.318,5.295-7.759,9.639-9.521c-4.344-1.76-7.827-5.2-9.639-9.519
	c-1.81,4.318-5.293,7.758-9.637,9.519C101.144,11.281,104.627,14.721,106.437,19.04z"/>
<path fill="#E6282B" d="M74.171,0c-1.81,4.318-5.294,7.758-9.638,9.518c4.344,1.762,7.827,5.203,9.638,9.52
	c1.812-4.317,5.295-7.758,9.639-9.52C79.466,7.758,75.983,4.318,74.171,0z"/>
<path fill="#E6282B" d="M41.905,0c-1.812,4.318-5.295,7.758-9.638,9.518c4.343,1.762,7.827,5.203,9.638,9.52
	c1.81-4.317,5.294-7.758,9.638-9.52C47.199,7.758,43.716,4.318,41.905,0z"/>
<path fill="#E6282B" d="M9.639,32.658C7.827,36.976,4.343,40.416,0,42.178c4.343,1.761,7.827,5.2,9.639,9.518
	c1.81-4.318,5.294-7.758,9.638-9.518C14.933,40.416,11.449,36.976,9.639,32.658z"/>
<path fill="#E6282B" d="M9.639,65.317C7.827,69.633,4.343,73.075,0,74.835c4.343,1.761,7.827,5.201,9.639,9.52
	c1.81-4.318,5.294-7.759,9.638-9.52C14.933,73.075,11.449,69.633,9.639,65.317z"/>
<path fill="#E6282B" d="M9.639,97.974c-1.812,4.317-5.295,7.758-9.638,9.519c4.343,1.762,7.827,5.202,9.638,9.521
	c1.81-4.318,5.294-7.759,9.638-9.521C14.933,105.732,11.449,102.291,9.639,97.974z"/>
<path fill="#E6282B" d="M9.639,0C7.827,4.318,4.343,7.758,0,9.519c4.343,1.762,7.827,5.203,9.638,9.52
	c1.81-4.317,5.294-7.758,9.638-9.52C14.933,7.758,11.449,4.318,9.639,0z"/>
</svg>
